{
  "project_info": {
    "project_number": "24624453458",
    "project_id": "a42race-yelp",
    "storage_bucket": "a42race-yelp.appspot.com"
  },
  "client": [
    {
      "client_info": {
        "mobilesdk_app_id": "1:24624453458:android:8c6bc3184ac3a7cf540c8b",
        "android_client_info": {
          "package_name": "com.gilar.a42race.yelp"
        }
      },
      "oauth_client": [
        {
          "client_id": "24624453458-fk0lam6chfnv1qtunk7bm2tbite39b1m.apps.googleusercontent.com",
          "client_type": 3
        }
      ],
      "api_key": [
        {
          "current_key": "AIzaSyCYDOkaSVJikWRsRFSOkcJTdFMph2VP2gM"
        }
      ],
      "services": {
        "appinvite_service": {
          "other_platform_oauth_client": [
            {
              "client_id": "24624453458-fk0lam6chfnv1qtunk7bm2tbite39b1m.apps.googleusercontent.com",
              "client_type": 3
            }
          ]
        }
      }
    }
  ],
  "configuration_version": "1"
}